<svg width="13.391" height="15.793" version="1.1" xmlns="http://www.w3.org/2000/svg">
 <path id="path2" d="m0.0019531 0c0.00699 2.7084-0.013217 5.4169 0.011719 8.125 0.14925 2.1075 1.6408 3.7871 3.1465 5.1289 1.0824 0.97544 2.2817 1.8115 3.541 2.5391 2.0391-1.2207 3.9543-2.7183 5.4238-4.5996 0.84394-1.0899 1.3505-2.4577 1.2559-3.8457v-7.3477h-13.379zm8.8594 1.7988 2.2578 1.9766-2.332 2.6621 2.6016 2.3965-2.0313 2.2051-2.5469-2.3457-2.2812 2.6055-2.2559-1.9766 2.3301-2.6602-2.6016-2.3965 2.0312-2.207 2.5469 2.3457 2.2812-2.6055z" fill="#f00" stroke-miterlimit="2" stroke-width="1.115" style="font-feature-settings:normal;font-variant-alternates:normal;font-variant-caps:normal;font-variant-ligatures:normal;font-variant-numeric:normal;font-variant-position:normal;isolation:auto;mix-blend-mode:normal;shape-padding:0;text-decoration-color:#000000;text-decoration-line:none;text-decoration-style:solid;text-indent:0;text-orientation:mixed;text-transform:none;white-space:normal"/>
</svg>
